<?xml version="1.0" encoding="utf-8"?>
<!-- Generator: Adobe Illustrator 16.0.0, SVG Export Plug-In . SVG Version: 6.00 Build 0)  -->
<!DOCTYPE svg PUBLIC "-//W3C//DTD SVG 1.1//EN" "http://www.w3.org/Graphics/SVG/1.1/DTD/svg11.dtd">
<svg version="1.1" id="Layer_1" xmlns="http://www.w3.org/2000/svg" xmlns:xlink="http://www.w3.org/1999/xlink" x="0px" y="0px"
	 width="595.28px" height="841.89px" viewBox="0 0 595.28 841.89" enable-background="new 0 0 595.28 841.89" xml:space="preserve">
<g id="FZSbnI.tif">
	<g>
		<path fill-rule="evenodd" clip-rule="evenodd" d="M54.911,318.463c-11.793-11.827-11.416-15.496,2.091-25.458
			c28.308-20.882,56.517-41.898,84.827-62.778c3.648-2.691,7.321-7.185,12.381-4.612c5.216,2.655,3.025,8.35,3.173,12.81
			c0.247,7.421-0.029,14.858,0.016,22.288c0.095,15.859,4.372,20.248,20.117,20.262c55.921,0.047,111.844,0.019,167.766,0.018
			c6.647,0,13.301,0.166,19.942-0.052c10.167-0.335,16.042-4.973,15.819-15.945c-0.24-11.728-0.125-23.462-0.083-35.195
			c0.041-11.513,3.93-21.234,12.808-29.009c10.579-9.267,20.79-18.958,31.186-28.436c2.89-2.632,5.923-5.891,10.208-3.607
			c3.763,2.005,2.599,6.204,2.597,9.546c-0.023,41.449-0.159,82.899-0.263,124.348c-10.917,25.924-28.394,37.735-55.837,37.735
			c-56.313,0-112.625,0-168.939,0c-12.515,0-25.035-0.231-37.542,0.077c-12.271,0.303-17.005,5.162-17.34,17.173
			c-0.12,4.283,0.262,8.581,0.416,12.872c-0.37,7.017-0.738,14.032-1.105,21.048c-6.241,4.012-10.083-0.707-14.257-3.982
			C113.551,364.547,84.233,341.501,54.911,318.463z"/>
		<path fill-rule="evenodd" clip-rule="evenodd" d="M327.272,193.918c-0.329-7.68-0.659-15.36-0.989-23.039
			c1.228-28.844-0.378-30.516-29.305-30.516c-56.534,0-113.066,0-169.599,0c-24.124,0.001-26.565,2.542-25.902,26.998
			c0.031,1.161,0.26,2.317,0.395,3.477c-0.375,9.36-0.751,18.719-1.126,28.078c-11.313,20.733-31.208,33.061-47.818,48.591
			c-1.122,1.05-3.698,0.542-5.599,0.757c-2.415-3.866-2.226-8.175-2.226-12.49c0.004-36.776-0.145-73.552-0.021-110.328
			c0.086-25.228,16.675-41.432,42.03-41.437c72.379-0.013,144.759,0.004,217.138-0.01c18.285-0.003,20.876-2.675,20.896-21.165
			c0.009-8.604-0.397-17.245,0.246-25.804c0.613-8.165,4.631-11.651,12.358-5.968c31.817,23.393,63.669,46.74,95.35,70.316
			c8.954,6.664,5.043,13.383-1.03,19.636c-30.038,22.967-60.104,45.894-90.079,68.942
			C337.518,193.394,333.331,196.849,327.272,193.918z"/>
	</g>
</g>
</svg>
