<?xml version="1.0" encoding="utf-8"?>
<!-- Generator: Adobe Illustrator 16.0.0, SVG Export Plug-In . SVG Version: 6.00 Build 0)  -->
<!DOCTYPE svg PUBLIC "-//W3C//DTD SVG 1.1//EN" "http://www.w3.org/Graphics/SVG/1.1/DTD/svg11.dtd">
<svg version="1.1" id="Layer_1" xmlns="http://www.w3.org/2000/svg" xmlns:xlink="http://www.w3.org/1999/xlink" x="0px" y="0px"
	 width="48px" height="48px" viewBox="0 0 48 48" enable-background="new 0 0 48 48" xml:space="preserve">
<path fill-rule="evenodd" clip-rule="evenodd" fill="#070707" d="M3.5,20.579c0.014-5.223,2.935-9.096,7.846-10.976
	c5.102-1.953,10.379-2.602,15.796-2.069c4.812,0.473,9.359,1.855,13.601,4.198c0.911,0.503,1.517,1.24,1.438,2.34
	c-0.066,0.924-0.67,1.488-1.473,1.839c-0.632,0.276-1.244,0.208-1.853-0.156c-5.773-3.458-12.075-4.374-18.67-3.854
	c-0.351,0.028-0.772,0.022-0.904,0.447c-0.141,0.457,0.192,0.777,0.5,1c2.202,1.589,2.989,3.909,3.211,6.439
	c0.359,4.108-1.694,7.763-5.498,9.513c-5.017,2.308-10.5,0.357-12.945-4.275C3.808,23.62,3.307,22.028,3.5,20.579z M18.709,20.507
	c0.062-2.985-2.647-5.478-5.499-5.526c-2.769-0.047-5.475,2.766-5.434,5.526c0.045,2.958,2.699,5.623,5.648,5.512
	C16.324,25.911,18.754,23.295,18.709,20.507z"/>
<path fill-rule="evenodd" clip-rule="evenodd" fill="#070707" d="M24.493,40.626c-3.975,0.155-7.812-0.628-11.562-1.798
	c-2.012-0.628-3.95-1.514-5.77-2.611c-1.285-0.774-1.7-1.888-1.104-2.951c0.627-1.121,2.043-1.516,3.275-0.8
	c5.708,3.315,11.901,4.229,18.379,3.799c0.383-0.025,0.739-0.091,0.861-0.502c0.127-0.428-0.062-0.708-0.431-0.989
	c-2.78-2.122-4.013-6.754-2.862-10.047c0.91-2.607,2.447-4.634,4.912-5.848c2.255-1.109,4.622-1.39,7.114-0.708
	c2.446,0.669,4.327,2.021,5.712,4.114c2.749,4.156,1.657,10.727-2.326,13.751c-2.56,1.941-5.488,3.022-8.613,3.728
	C29.567,40.331,27.042,40.558,24.493,40.626z M34.649,33.035c2.895-0.01,5.484-2.544,5.504-5.389
	c0.021-2.879-2.678-5.635-5.461-5.581c-2.93,0.058-5.497,2.594-5.485,5.417C29.221,30.465,31.749,33.044,34.649,33.035z"/>
</svg>
