<?xml version="1.0" encoding="utf-8"?>
<!-- Generator: Adobe Illustrator 16.0.0, SVG Export Plug-In . SVG Version: 6.00 Build 0)  -->
<!DOCTYPE svg PUBLIC "-//W3C//DTD SVG 1.1//EN" "http://www.w3.org/Graphics/SVG/1.1/DTD/svg11.dtd">
<svg version="1.1" id="Layer_1" xmlns="http://www.w3.org/2000/svg" xmlns:xlink="http://www.w3.org/1999/xlink" x="0px" y="0px"
	 width="48px" height="48px" viewBox="0 0 48 48" enable-background="new 0 0 48 48" xml:space="preserve">
<path fill-rule="evenodd" clip-rule="evenodd" fill="#070707" d="M35.348,29.713c0.351-4.289,0.711-8.741,1.087-13.192
	c0.027-0.325,0.085-0.637-0.281-0.769c-0.458-0.165-0.783,0.073-1.1,0.399c-1.674,1.725-3.349,3.448-5.049,5.148
	c-2.646,2.645-5.311,5.269-7.968,7.902c-0.588,0.582-0.673,1.107-0.008,1.748c1.787,1.725,3.553,3.473,5.28,5.26
	c1.606,1.664,1.346,3.25-0.577,4.076c-1.025,0.441-1.787-0.008-2.47-0.672c-1.806-1.762-3.626-3.508-5.356-5.342
	c-0.7-0.74-1.181-0.76-1.861-0.059c-1.807,1.861-3.642,3.699-5.474,5.537c-0.402,0.402-0.817,0.803-1.267,1.15
	c-1.142,0.883-2.362,0.801-3.274-0.182c-0.815-0.879-0.755-2.201,0.219-3.191c2.144-2.18,4.316-4.332,6.481-6.49
	c0.846-0.844,0.802-1.16-0.089-2.033c-1.853-1.82-3.678-3.668-5.495-5.523c-0.65-0.665-0.831-1.509-0.389-2.32
	c0.493-0.904,1.224-1.554,2.396-1.442c0.589,0.057,0.996,0.394,1.371,0.762c1.8,1.766,3.593,3.539,5.357,5.339
	c0.842,0.861,1.16,0.867,2.039-0.014c4.048-4.059,8.113-8.101,12.159-12.162c0.518-0.52,1.721-0.776,1.192-1.789
	c-0.493-0.947-1.368-0.059-2.063-0.025c-3.091,0.155-6.18,0.371-9.267,0.582c-1.257,0.085-2.511,0.224-3.768,0.321
	c-1.377,0.106-2.755-0.892-2.87-2.061c-0.134-1.358,0.885-2.523,2.435-2.631c5.872-0.409,11.746-0.772,17.618-1.168
	c1.447-0.098,2.891-0.273,4.338-0.378c1.702-0.125,3.031,1.168,2.82,2.811c-0.464,3.605-0.462,7.242-0.783,10.857
	c-0.331,3.73-0.522,7.472-0.771,11.208c-0.102,1.514-0.969,2.234-2.629,2.176c-1.278-0.047-2.025-0.959-1.984-2.406
	C35.357,30.721,35.348,30.299,35.348,29.713z"/>
</svg>
