<?xml version="1.0" encoding="utf-8"?>
<!-- Generator: Adobe Illustrator 16.0.0, SVG Export Plug-In . SVG Version: 6.00 Build 0)  -->
<!DOCTYPE svg PUBLIC "-//W3C//DTD SVG 1.1//EN" "http://www.w3.org/Graphics/SVG/1.1/DTD/svg11.dtd">
<svg version="1.1" id="Layer_1" xmlns="http://www.w3.org/2000/svg" xmlns:xlink="http://www.w3.org/1999/xlink" x="0px" y="0px"
	 width="48px" height="48px" viewBox="0 0 48 48" enable-background="new 0 0 48 48" xml:space="preserve">
<path fill-rule="evenodd" clip-rule="evenodd" fill="#070707" d="M28.083,20.673c0-2.59,0.018-5.18-0.006-7.771
	C28.062,11.18,27.178,10,25.698,9.168C24.8,8.663,24,8.814,23.318,9.435c-1.32,1.203-2.33,2.592-2.317,4.509
	c0.03,4.677,0.039,9.355,0.056,14.031c0.004,0.99-0.641,1.662-1.588,1.65c-0.9-0.012-1.481-0.711-1.473-1.76
	c0.016-2.004,0.032-4.007,0.039-6.011c0.01-3.062,0.011-6.125,0.015-9.188c0.001-1.584-1.726-3.606-3.265-3.782
	c-0.897-0.102-1.527,0.448-2.093,1.031c-0.644,0.663-1.057,1.492-1.507,2.291c-0.163,0.289-0.16,0.608-0.077,0.895
	c0.385,1.338,0.285,2.708,0.294,4.067c0.024,3.565,0.014,7.129,0.018,10.694c0.001,0.932-0.719,1.75-1.535,1.74
	c-0.893-0.012-1.527-0.748-1.524-1.736c0.008-4.121,0.042-8.243,0.003-12.363c-0.033-3.396-1.684-5.572-4.906-6.64
	c-1.096-0.364-1.521-1-1.258-1.886c0.268-0.904,1.193-1.308,2.227-1.008c1.638,0.475,3.091,1.285,4.269,2.505
	C9.267,9.067,9.56,8.946,9.979,8.365c0.927-1.287,2.143-2.205,3.732-2.458c2.121-0.338,3.877,0.446,5.317,1.977
	c0.655,0.695,0.819,0.717,1.407-0.005c1.697-2.088,4.582-2.663,6.924-1.329c2.529,1.441,3.815,3.607,3.795,6.561
	c-0.034,4.819-0.084,9.638,0.014,14.455c0.038,1.895,0.121,3.842,1.117,5.592c0.444,0.779,1.083,1.182,1.915,1.307
	c1.188,0.176,2.388,0.076,3.583,0.035c0.35-0.012,0.693-0.104,0.719-0.537c0.026-0.441-0.332-0.553-0.663-0.604
	c-0.657-0.102-1.333-0.078-1.964-0.346c-0.91-0.387-1.281-1-1.065-1.811c0.205-0.771,0.932-1.25,1.836-1.066
	c2.67,0.543,5.336,1.107,7.989,1.727c1.149,0.268,1.575,1.414,0.957,2.426c-1.401,2.299-2.826,4.584-4.256,6.865
	c-0.232,0.371-0.453,0.785-0.932,0.914c-0.65,0.172-1.311,0.18-1.784-0.35c-0.439-0.488-0.489-1.086-0.197-1.715
	c0.367-0.789,0.936-1.443,1.371-2.184c0.127-0.215,0.337-0.416,0.17-0.68c-0.198-0.316-0.497-0.168-0.753-0.096
	c-2.04,0.58-4.07,0.779-6.173,0.217c-2.328-0.623-3.557-2.188-4.227-4.381c-0.694-2.273-0.729-4.602-0.716-6.941
	c0.01-1.755,0.002-3.51,0.002-5.265C28.094,20.673,28.089,20.673,28.083,20.673z"/>
</svg>
